{
  "status" : "success",
  "result" : {
    "hasMore" : true,
    "totalResults" : 45,
    "count" : 25,
    "limit" : 25,
    "offset" : 0,
    "resultData" : [ {
      "screeningDate" : "2019-12-20T10:43:45.000Z",
      "codeBreak" : null,
      "userId" : "6C5689A573BA408E8439D8F28626219C",
      "eventType" : null,
      "subjectTransferId" : null,
      "objectVersionNumber" : 4,
      "mhealthSubjectId" : "13B809B00A8E481487CF803C03F96B37",
      "fromStudyId" : null,
      "subjNumSiteOrgId" : "Site_0031.627_TW",
      "id" : "218BE06EA4EB4279AC47B672081BF829",
      "versionStart" : "2019-12-20T10:44:53.289Z",
      "description" : null,
      "subjectNumber" : "Site_0031.627_TW0050",
      "studyId" : "21ECBB33A7AA4B528C004995AE12349C",
      "siteId" : "A9A21F073757417C91ECAFB15C20257D",
      "dob" : null,
      "state" : "Active",
      "stateDate" : "2019-12-20T10:44:50.000Z",
      "screeningFailure" : null,
      "enrollmentFailure" : null,
      "enrollmentOverride" : null,
      "informedConsentDate" : null,
      "gender" : null,
      "reason" : null,
      "comment" : null,
      "studyVersion" : "1.0.0.3"
    }, {
      "screeningDate" : "2019-12-20T10:25:51.000Z",
      "codeBreak" : null,
      "userId" : "6C5689A573BA408E8439D8F28626219C",
      "eventType" : null,
      "subjectTransferId" : null,
      "objectVersionNumber" : 4,
      "mhealthSubjectId" : "E28747B15B974CEF840BA3828DD63390",
      "fromStudyId" : null,
      "subjNumSiteOrgId" : "Site_0031.627_TW",
      "id" : "57C3960983474657A62DADC585745AF5",
      "versionStart" : "2019-12-20T10:26:54.687Z",
      "description" : null,
      "subjectNumber" : "Site_0031.627_TW0049",
      "studyId" : "21ECBB33A7AA4B528C004995AE12349C",
      "siteId" : "A9A21F073757417C91ECAFB15C20257D",
      "dob" : null,
      "state" : "Active",
      "stateDate" : "2019-12-20T10:26:51.000Z",
      "screeningFailure" : null,
      "enrollmentFailure" : null,
      "enrollmentOverride" : null,
      "informedConsentDate" : null,
      "gender" : null,
      "reason" : null,
      "comment" : null,
      "studyVersion" : "1.0.0.3"
    }, {
      "screeningDate" : "2019-12-20T09:32:39.000Z",
      "codeBreak" : null,
      "userId" : "6C5689A573BA408E8439D8F28626219C",
      "eventType" : null,
      "subjectTransferId" : null,
      "objectVersionNumber" : 4,
      "mhealthSubjectId" : "7CD9380B992948649C85238E6727E840",
      "fromStudyId" : null,
      "subjNumSiteOrgId" : "Site_0031.627_TW",
      "id" : "0EC876FA0AA746ABA29659FB6192F838",
      "versionStart" : "2019-12-20T09:33:46.168Z",
      "description" : null,
      "subjectNumber" : "Site_0031.627_TW0048",
      "studyId" : "21ECBB33A7AA4B528C004995AE12349C",
      "siteId" : "A9A21F073757417C91ECAFB15C20257D",
      "dob" : null,
      "state" : "Active",
      "stateDate" : "2019-12-20T09:33:43.000Z",
      "screeningFailure" : null,
      "enrollmentFailure" : null,
      "enrollmentOverride" : null,
      "informedConsentDate" : null,
      "gender" : null,
      "reason" : null,
      "comment" : null,
      "studyVersion" : "1.0.0.3"
    }, {
      "screeningDate" : "2019-12-20T08:50:17.000Z",
      "codeBreak" : null,
      "userId" : "6C5689A573BA408E8439D8F28626219C",
      "eventType" : null,
      "subjectTransferId" : null,
      "objectVersionNumber" : 4,
      "mhealthSubjectId" : "AE1BDF37751346598A23B6E04069EF88",
      "fromStudyId" : null,
      "subjNumSiteOrgId" : "Site_0031.627_TW",
      "id" : "CE87FEF4A4AF4AC28EEFB18389A1C4FF",
      "versionStart" : "2019-12-20T08:51:19.549Z",
      "description" : null,
      "subjectNumber" : "Site_0031.627_TW0047",
      "studyId" : "21ECBB33A7AA4B528C004995AE12349C",
      "siteId" : "A9A21F073757417C91ECAFB15C20257D",
      "dob" : null,
      "state" : "Active",
      "stateDate" : "2019-12-20T08:51:16.000Z",
      "screeningFailure" : null,
      "enrollmentFailure" : null,
      "enrollmentOverride" : null,
      "informedConsentDate" : null,
      "gender" : null,
      "reason" : null,
      "comment" : null,
      "studyVersion" : "1.0.0.3"
    }, {
      "screeningDate" : "2019-12-20T07:58:09.000Z",
      "codeBreak" : null,
      "userId" : "6C5689A573BA408E8439D8F28626219C",
      "eventType" : null,
      "subjectTransferId" : null,
      "objectVersionNumber" : 4,
      "mhealthSubjectId" : "F81EF5602A1E4EC6B47F950A9AC58F4B",
      "fromStudyId" : null,
      "subjNumSiteOrgId" : "Site_0031.627_TW",
      "id" : "09A6F1DFC6B14DF589CBD0DDA9C6E6F9",
      "versionStart" : "2019-12-20T07:59:12.618Z",
      "description" : null,
      "subjectNumber" : "Site_0031.627_TW0046",
      "studyId" : "21ECBB33A7AA4B528C004995AE12349C",
      "siteId" : "A9A21F073757417C91ECAFB15C20257D",
      "dob" : null,
      "state" : "Active",
      "stateDate" : "2019-12-20T07:59:10.000Z",
      "screeningFailure" : null,
      "enrollmentFailure" : null,
      "enrollmentOverride" : null,
      "informedConsentDate" : null,
      "gender" : null,
      "reason" : null,
      "comment" : null,
      "studyVersion" : "1.0.0.3"
    }, {
      "screeningDate" : "2019-12-20T07:56:34.000Z",
      "codeBreak" : null,
      "userId" : "6C5689A573BA408E8439D8F28626219C",
      "eventType" : null,
      "subjectTransferId" : null,
      "objectVersionNumber" : 4,
      "mhealthSubjectId" : "5A6A849CE6654B10976428B082F02D89",
      "fromStudyId" : null,
      "subjNumSiteOrgId" : "Site_0031.627_TW",
      "id" : "F5ABE0EA5C9942A5B2F0950680675257",
      "versionStart" : "2019-12-20T07:57:25.046Z",
      "description" : null,
      "subjectNumber" : "Site_0031.627_TW0045",
      "studyId" : "21ECBB33A7AA4B528C004995AE12349C",
      "siteId" : "A9A21F073757417C91ECAFB15C20257D",
      "dob" : null,
      "state" : "Active",
      "stateDate" : "2019-12-20T07:57:22.000Z",
      "screeningFailure" : null,
      "enrollmentFailure" : null,
      "enrollmentOverride" : null,
      "informedConsentDate" : null,
      "gender" : null,
      "reason" : null,
      "comment" : null,
      "studyVersion" : "1.0.0.3"
    }, {
      "screeningDate" : "2019-12-20T07:35:07.000Z",
      "codeBreak" : null,
      "userId" : "6C5689A573BA408E8439D8F28626219C",
      "eventType" : null,
      "subjectTransferId" : null,
      "objectVersionNumber" : 4,
      "mhealthSubjectId" : "CF82BE5CFC9241B2A8CDBA2170FB1ED3",
      "fromStudyId" : null,
      "subjNumSiteOrgId" : "Site_0031.627_TW",
      "id" : "ADA49A742A224A828C421EC0828C4D54",
      "versionStart" : "2019-12-20T07:36:11.807Z",
      "description" : null,
      "subjectNumber" : "Site_0031.627_TW0044",
      "studyId" : "21ECBB33A7AA4B528C004995AE12349C",
      "siteId" : "A9A21F073757417C91ECAFB15C20257D",
      "dob" : null,
      "state" : "Active",
      "stateDate" : "2019-12-20T07:36:08.000Z",
      "screeningFailure" : null,
      "enrollmentFailure" : null,
      "enrollmentOverride" : null,
      "informedConsentDate" : null,
      "gender" : null,
      "reason" : null,
      "comment" : null,
      "studyVersion" : "1.0.0.3"
    }, {
      "screeningDate" : "2019-12-20T06:32:03.000Z",
      "codeBreak" : null,
      "userId" : "6C5689A573BA408E8439D8F28626219C",
      "eventType" : null,
      "subjectTransferId" : null,
      "objectVersionNumber" : 4,
      "mhealthSubjectId" : "3AE8D78B31B443EF908F69A3BF8B9B5C",
      "fromStudyId" : null,
      "subjNumSiteOrgId" : "Site_0031.627_TW",
      "id" : "8F02149A050F4BF2A4DB5CC714546B2D",
      "versionStart" : "2019-12-20T06:33:18.925Z",
      "description" : null,
      "subjectNumber" : "Site_0031.627_TW0043",
      "studyId" : "21ECBB33A7AA4B528C004995AE12349C",
      "siteId" : "A9A21F073757417C91ECAFB15C20257D",
      "dob" : null,
      "state" : "Active",
      "stateDate" : "2019-12-20T06:33:15.000Z",
      "screeningFailure" : null,
      "enrollmentFailure" : null,
      "enrollmentOverride" : null,
      "informedConsentDate" : null,
      "gender" : null,
      "reason" : null,
      "comment" : null,
      "studyVersion" : "1.0.0.3"
    },  {
      "screeningDate" : "2019-12-16T15:34:25.000Z",
      "codeBreak" : null,
      "userId" : "6C5689A573BA408E8439D8F28626219C",
      "eventType" : null,
      "subjectTransferId" : null,
      "objectVersionNumber" : 4,
      "mhealthSubjectId" : "AC9322AEA130460A96A0113ADBB1EACE",
      "fromStudyId" : null,
      "subjNumSiteOrgId" : "Site_0031.627_TW",
      "id" : "70B17621D641406799FA2E16FCA95A61",
      "versionStart" : "2019-12-16T15:35:13.345Z",
      "description" : null,
      "subjectNumber" : "Site_0031.627_TW0039",
      "studyId" : "21ECBB33A7AA4B528C004995AE12349C",
      "siteId" : "A9A21F073757417C91ECAFB15C20257D",
      "dob" : null,
      "state" : "Active",
      "stateDate" : "2019-12-16T15:35:11.000Z",
      "screeningFailure" : null,
      "enrollmentFailure" : null,
      "enrollmentOverride" : null,
      "informedConsentDate" : null,
      "gender" : null,
      "reason" : null,
      "comment" : null,
      "studyVersion" : "1.0.0.3"
    }, {
      "screeningDate" : "2019-12-16T15:30:12.000Z",
      "codeBreak" : null,
      "userId" : "6C5689A573BA408E8439D8F28626219C",
      "eventType" : null,
      "subjectTransferId" : null,
      "objectVersionNumber" : 4,
      "mhealthSubjectId" : "8D482E9B2BD24D1B8B9D1BF89CFAFAE7",
      "fromStudyId" : null,
      "subjNumSiteOrgId" : "Site_0031.627_TW",
      "id" : "B60DDC54AC6D4A53BC7F5B7BA5FC35DA",
      "versionStart" : "2019-12-16T15:31:02.370Z",
      "description" : null,
      "subjectNumber" : "Site_0031.627_TW0038",
      "studyId" : "21ECBB33A7AA4B528C004995AE12349C",
      "siteId" : "A9A21F073757417C91ECAFB15C20257D",
      "dob" : null,
      "state" : "Active",
      "stateDate" : "2019-12-16T15:31:00.000Z",
      "screeningFailure" : null,
      "enrollmentFailure" : null,
      "enrollmentOverride" : null,
      "informedConsentDate" : null,
      "gender" : null,
      "reason" : null,
      "comment" : null,
      "studyVersion" : "1.0.0.3"
    }, {
      "screeningDate" : "2019-12-16T15:27:07.000Z",
      "codeBreak" : null,
      "userId" : "6C5689A573BA408E8439D8F28626219C",
      "eventType" : null,
      "subjectTransferId" : null,
      "objectVersionNumber" : 4,
      "mhealthSubjectId" : "2CAD3F9CDE7F4485BCF69933C27C9C3B",
      "fromStudyId" : null,
      "subjNumSiteOrgId" : "Site_0031.627_TW",
      "id" : "7A085CA98C264D95A2E2BEC46FE1BE75",
      "versionStart" : "2019-12-16T15:27:48.716Z",
      "description" : null,
      "subjectNumber" : "Site_0031.627_TW0037",
      "studyId" : "21ECBB33A7AA4B528C004995AE12349C",
      "siteId" : "A9A21F073757417C91ECAFB15C20257D",
      "dob" : null,
      "state" : "Active",
      "stateDate" : "2019-12-16T15:27:47.000Z",
      "screeningFailure" : null,
      "enrollmentFailure" : null,
      "enrollmentOverride" : null,
      "informedConsentDate" : null,
      "gender" : null,
      "reason" : null,
      "comment" : null,
      "studyVersion" : "1.0.0.3"
    }, {
      "screeningDate" : "2019-12-16T15:23:10.000Z",
      "codeBreak" : null,
      "userId" : "6C5689A573BA408E8439D8F28626219C",
      "eventType" : null,
      "subjectTransferId" : null,
      "objectVersionNumber" : 4,
      "mhealthSubjectId" : "4B5FEDC5631B479EB67F6CA7AED58AFD",
      "fromStudyId" : null,
      "subjNumSiteOrgId" : "Site_0031.627_TW",
      "id" : "B6AEF31D8D514BBBAE2F37C9947455D4",
      "versionStart" : "2019-12-16T15:23:52.131Z",
      "description" : null,
      "subjectNumber" : "Site_0031.627_TW0036",
      "studyId" : "21ECBB33A7AA4B528C004995AE12349C",
      "siteId" : "A9A21F073757417C91ECAFB15C20257D",
      "dob" : null,
      "state" : "Active",
      "stateDate" : "2019-12-16T15:23:50.000Z",
      "screeningFailure" : null,
      "enrollmentFailure" : null,
      "enrollmentOverride" : null,
      "informedConsentDate" : null,
      "gender" : null,
      "reason" : null,
      "comment" : null,
      "studyVersion" : "1.0.0.3"
    }, {
      "screeningDate" : "2019-12-16T15:19:27.000Z",
      "codeBreak" : null,
      "userId" : "6C5689A573BA408E8439D8F28626219C",
      "eventType" : null,
      "subjectTransferId" : null,
      "objectVersionNumber" : 4,
      "mhealthSubjectId" : "84A8B272E7AB4F74A41B692E5898CE96",
      "fromStudyId" : null,
      "subjNumSiteOrgId" : "Site_0031.627_TW",
      "id" : "4A10E934B18E4F6D8976B26A1692A401",
      "versionStart" : "2019-12-16T15:20:10.231Z",
      "description" : null,
      "subjectNumber" : "Site_0031.627_TW0035",
      "studyId" : "21ECBB33A7AA4B528C004995AE12349C",
      "siteId" : "A9A21F073757417C91ECAFB15C20257D",
      "dob" : null,
      "state" : "Active",
      "stateDate" : "2019-12-16T15:20:08.000Z",
      "screeningFailure" : null,
      "enrollmentFailure" : null,
      "enrollmentOverride" : null,
      "informedConsentDate" : null,
      "gender" : null,
      "reason" : null,
      "comment" : null,
      "studyVersion" : "1.0.0.3"
    }, {
      "screeningDate" : "2019-12-16T15:16:12.000Z",
      "codeBreak" : null,
      "userId" : "6C5689A573BA408E8439D8F28626219C",
      "eventType" : null,
      "subjectTransferId" : null,
      "objectVersionNumber" : 4,
      "mhealthSubjectId" : "743A862A3573413793BF0A2279C81524",
      "fromStudyId" : null,
      "subjNumSiteOrgId" : "Site_0031.627_TW",
      "id" : "87F56CF25534442CA10DD0BC225E0012",
      "versionStart" : "2019-12-16T15:16:54.865Z",
      "description" : null,
      "subjectNumber" : "Site_0031.627_TW0034",
      "studyId" : "21ECBB33A7AA4B528C004995AE12349C",
      "siteId" : "A9A21F073757417C91ECAFB15C20257D",
      "dob" : null,
      "state" : "Active",
      "stateDate" : "2019-12-16T15:16:52.000Z",
      "screeningFailure" : null,
      "enrollmentFailure" : null,
      "enrollmentOverride" : null,
      "informedConsentDate" : null,
      "gender" : null,
      "reason" : null,
      "comment" : null,
      "studyVersion" : "1.0.0.3"
    },  {
      "screeningDate" : "2019-12-16T14:54:00.000Z",
      "codeBreak" : null,
      "userId" : "6C5689A573BA408E8439D8F28626219C",
      "eventType" : null,
      "subjectTransferId" : null,
      "objectVersionNumber" : 4,
      "mhealthSubjectId" : "5B567821918E41128041FAD553413F9D",
      "fromStudyId" : null,
      "subjNumSiteOrgId" : "Site_0031.627_TW",
      "id" : "51D5020B743848E2BBB6A27C485D8F5D",
      "versionStart" : "2019-12-16T14:54:50.059Z",
      "description" : null,
      "subjectNumber" : "Site_0031.627_TW0031",
      "studyId" : "21ECBB33A7AA4B528C004995AE12349C",
      "siteId" : "A9A21F073757417C91ECAFB15C20257D",
      "dob" : null,
      "state" : "Active",
      "stateDate" : "2019-12-16T14:54:48.000Z",
      "screeningFailure" : null,
      "enrollmentFailure" : null,
      "enrollmentOverride" : null,
      "informedConsentDate" : null,
      "gender" : null,
      "reason" : null,
      "comment" : null,
      "studyVersion" : "1.0.0.3"
    }, {
      "screeningDate" : "2019-12-16T14:01:38.000Z",
      "codeBreak" : null,
      "userId" : "6C5689A573BA408E8439D8F28626219C",
      "eventType" : null,
      "subjectTransferId" : null,
      "objectVersionNumber" : 4,
      "mhealthSubjectId" : "1124F984AAC84212B60ED23F4701F7F2",
      "fromStudyId" : null,
      "subjNumSiteOrgId" : "Site_0031.627_TW",
      "id" : "83104AACE4B44BD298123FF87B1C3AD7",
      "versionStart" : "2019-12-16T14:04:28.882Z",
      "description" : null,
      "subjectNumber" : "Site_0031.627_TW0030",
      "studyId" : "21ECBB33A7AA4B528C004995AE12349C",
      "siteId" : "A9A21F073757417C91ECAFB15C20257D",
      "dob" : null,
      "state" : "Active",
      "stateDate" : "2019-12-16T14:02:25.000Z",
      "screeningFailure" : null,
      "enrollmentFailure" : null,
      "enrollmentOverride" : null,
      "informedConsentDate" : null,
      "gender" : null,
      "reason" : null,
      "comment" : null,
      "studyVersion" : "1.0.0.3"
    }, {
      "screeningDate" : "2019-12-16T13:58:49.000Z",
      "codeBreak" : null,
      "userId" : "6C5689A573BA408E8439D8F28626219C",
      "eventType" : "Screened",
      "subjectTransferId" : null,
      "objectVersionNumber" : 2,
      "mhealthSubjectId" : null,
      "fromStudyId" : null,
      "subjNumSiteOrgId" : "Site_0031.627_TW",
      "id" : "89AA225D91784655994CDD194B921603",
      "versionStart" : "2019-12-16T13:58:50.036Z",
      "description" : null,
      "subjectNumber" : "Site_0031.627_TW0029",
      "studyId" : "21ECBB33A7AA4B528C004995AE12349C",
      "siteId" : "A9A21F073757417C91ECAFB15C20257D",
      "dob" : null,
      "state" : "Screening_Initiated",
      "stateDate" : "2019-12-16T13:58:49.000Z",
      "screeningFailure" : null,
      "enrollmentFailure" : null,
      "enrollmentOverride" : null,
      "informedConsentDate" : null,
      "gender" : null,
      "reason" : null,
      "comment" : null,
      "studyVersion" : "1.0.0.3"
    }, {
      "screeningDate" : "2019-12-16T13:21:09.000Z",
      "codeBreak" : null,
      "userId" : "6C5689A573BA408E8439D8F28626219C",
      "eventType" : null,
      "subjectTransferId" : null,
      "objectVersionNumber" : 4,
      "mhealthSubjectId" : "6839BEC300B94D7C863AF4FD4ACD0B46",
      "fromStudyId" : null,
      "subjNumSiteOrgId" : "Site_0031.627_TW",
      "id" : "1E7FD7398EBB40C2B86D30F8E0666D6F",
      "versionStart" : "2019-12-16T13:28:19.748Z",
      "description" : null,
      "subjectNumber" : "Site_0031.627_TW0028",
      "studyId" : "21ECBB33A7AA4B528C004995AE12349C",
      "siteId" : "A9A21F073757417C91ECAFB15C20257D",
      "dob" : null,
      "state" : "Active",
      "stateDate" : "2019-12-16T13:26:46.000Z",
      "screeningFailure" : null,
      "enrollmentFailure" : null,
      "enrollmentOverride" : null,
      "informedConsentDate" : null,
      "gender" : null,
      "reason" : null,
      "comment" : null,
      "studyVersion" : "1.0.0.3"
    }, {
      "screeningDate" : "2019-12-16T13:12:12.000Z",
      "codeBreak" : null,
      "userId" : "6C5689A573BA408E8439D8F28626219C",
      "eventType" : null,
      "subjectTransferId" : null,
      "objectVersionNumber" : 4,
      "mhealthSubjectId" : "FB84920630814AC49674FFE6BF074FDA",
      "fromStudyId" : null,
      "subjNumSiteOrgId" : "Site_0031.627_TW",
      "id" : "20F64FA9751E47EFACEF1AFF44F65A36",
      "versionStart" : "2019-12-16T13:18:31.696Z",
      "description" : null,
      "subjectNumber" : "Site_0031.627_TW0027",
      "studyId" : "21ECBB33A7AA4B528C004995AE12349C",
      "siteId" : "A9A21F073757417C91ECAFB15C20257D",
      "dob" : null,
      "state" : "Active",
      "stateDate" : "2019-12-16T13:18:10.000Z",
      "screeningFailure" : null,
      "enrollmentFailure" : null,
      "enrollmentOverride" : null,
      "informedConsentDate" : null,
      "gender" : null,
      "reason" : null,
      "comment" : null,
      "studyVersion" : "1.0.0.3"
    }, {
      "screeningDate" : "2019-12-16T12:58:00.000Z",
      "codeBreak" : null,
      "userId" : "6C5689A573BA408E8439D8F28626219C",
      "eventType" : null,
      "subjectTransferId" : null,
      "objectVersionNumber" : 4,
      "mhealthSubjectId" : "F2B4EA9248AF4D2397A27C17C9C58F0A",
      "fromStudyId" : null,
      "subjNumSiteOrgId" : "Site_0031.627_TW",
      "id" : "1EB45489309B42E7A4DF658AA77A65C9",
      "versionStart" : "2019-12-16T13:04:59.737Z",
      "description" : null,
      "subjectNumber" : "Site_0031.627_TW0026",
      "studyId" : "21ECBB33A7AA4B528C004995AE12349C",
      "siteId" : "A9A21F073757417C91ECAFB15C20257D",
      "dob" : null,
      "state" : "Active",
      "stateDate" : "2019-12-16T12:58:55.000Z",
      "screeningFailure" : null,
      "enrollmentFailure" : null,
      "enrollmentOverride" : null,
      "informedConsentDate" : null,
      "gender" : null,
      "reason" : null,
      "comment" : null,
      "studyVersion" : "1.0.0.3"
    } ]
  },
    "profile": {
    "name": "typicode"
}
